Name,Treatment,TGLA227,ETH10,SPS115,INRA23,ETH3,ETH225,BM1284,Number of Alelles,Percent Suc
F1_B_C03_AG_genotyping_Bovine_goat_12-14-20,Friction,0,0,0,2,0,1,0,3,0.214285714
F2_B_C04_AG_genotyping_Bovine_goat_12-14-20,Friction,1,0,0,0,0,1,0,2,0.142857143
F3_B_C05_AG_genotyping_Bovine_goat_12-14-20,Friction,0,0,0,0,0,0,0,0,0
F4_B_C06_AG_genotyping_Bovine_goat_12-14-20,Friction,2,0,0,0,1,2,0,5,0.357142857
F5_B_C07_AG_genotyping_Bovine_goat_12-14-20,Friction,2,0,0,1,0,1,0,4,0.285714286
F6_B_C08_AG_genotyping_Bovine_goat_12-14-20,Friction,2,2,2,2,1,2,2,13,0.928571429
F7_B_C09_AG_genotyping_Bovine_goat_12-14-20,Friction,1,0,0,0,0,0,0,1,0.071428571
F8_B_C10_AG_genotyping_Bovine_goat_12-14-20,Friction,2,2,2,2,1,2,2,13,0.928571429
F9_B_C11_AG_genotyping_Bovine_goat_12-14-20,Friction,2,2,2,2,1,2,2,13,0.928571429
F10_B_C12_AG_genotyping_Bovine_goat_12-14-20,Friction,0,0,0,0,0,1,0,1,0.071428571
F11_B_D01_AG_genotyping_Bovine_goat_12-14-20,Friction,2,2,2,2,1,2,2,13,0.928571429
F12_B_D02_AG_genotyping_Bovine_goat_12-14-20,Friction,1,2,0,0,0,1,0,4,0.285714286
F13_B_D03_AG_genotyping_Bovine_goat_12-14-20,Friction,0,0,0,0,0,0,0,0,0
P1_B_A01_AG_genotyping_Bovine_goat_12-14-20,Passive,0,0,0,0,0,0,0,0,0
P2_B_A02_AG_genotyping_Bovine_goat_12-14-20,Passive,2,2,0,0,1,2,1,8,0.571428571
P3_B_A03_AG_genotyping_Bovine_goat_12-14-20,Passive,0,0,0,0,0,0,0,0,0
P4_B_A04_AG_genotyping_Bovine_goat_12-14-20,Passive,0,0,0,0,0,0,0,0,0
P5_B_A05_AG_genotyping_Bovine_goat_12-14-20,Passive,0,0,0,0,0,0,0,0,0
P6_B_A06_AG_genotyping_Bovine_goat_12-14-20,Passive,0,0,0,0,0,0,0,0,0
P7_B_A07_AG_genotyping_Bovine_goat_12-14-20,Passive,0,0,0,0,0,0,0,0,0
P8_B_A08_AG_genotyping_Bovine_goat_12-14-20,Passive,0,0,0,0,0,0,1,1,0.071428571
P9_B_A09_AG_genotyping_Bovine_goat_12-14-20,Passive,0,0,0,0,0,0,0,0,0
P10_B_A10_AG_genotyping_Bovine_goat_12-14-20,Passive,0,0,0,0,0,0,0,0,0
P11_B_A11_AG_genotyping_Bovine_goat_12-14-20,Passive,0,0,0,0,0,0,0,0,0
P12_B_A12_AG_genotyping_Bovine_goat_12-14-20,Passive,0,0,0,0,0,0,0,0,0
P13_B_B01_AG_genotyping_Bovine_goat_12-14-20,Passive,0,2,0,0,0,0,0,2,0.142857143
PC_B_D04_AG_genotyping_Bovine_goat_12-14-20,PC Blood,2,2,2,2,2,2,2,14,1
PCR_C_B_D05_AG_genotyping_Bovine_goat_12-14-20,PC Beef,1,2,1,1,1,1,2,9,0.642857143
Pr1_B_B02_AG_genotyping_Bovine_goat_12-14-20,Pressure,2,2,2,2,1,2,2,13,0.928571429
Pr2_B_B03_AG_genotyping_Bovine_goat_12-14-20,Pressure,0,0,0,0,0,0,0,0,0
Pr3_B_B04_AG_genotyping_Bovine_goat_12-14-20,Pressure,0,0,0,0,0,0,0,0,0
Pr4_B_B05_AG_genotyping_Bovine_goat_12-14-20,Pressure,0,0,0,0,0,0,0,0,0
Pr5_B_B06_AG_genotyping_Bovine_goat_12-14-20,Pressure,0,0,0,0,0,0,1,1,0.071428571
Pr6_B_B07_AG_genotyping_Bovine_goat_12-14-20,Pressure,0,0,0,0,0,0,0,0,0
Pr7_B_B08_AG_genotyping_Bovine_goat_12-14-20,Pressure,0,0,0,0,0,0,0,0,0
Pr8_B_B09_AG_genotyping_Bovine_goat_12-14-20,Pressure,2,2,2,2,1,2,2,13,0.928571429
Pr9_B_B10_AG_genotyping_Bovine_goat_12-14-20,Pressure,2,2,2,2,1,2,2,13,0.928571429
Pr10_B_B11_AG_genotyping_Bovine_goat_12-14-20,Pressure,0,0,0,0,0,0,0,0,0
Pr11_B_B12_AG_genotyping_Bovine_goat_12-14-20,Pressure,0,0,0,0,0,0,0,0,0
Pr12_B_C01_AG_genotyping_Bovine_goat_12-14-20,Pressure,2,2,2,2,1,2,2,13,0.928571429
Pr13_B_C02_AG_genotyping_Bovine_goat_12-14-20,Pressure,0,0,0,0,0,0,0,0,0
