,,,,,,,,,,,,,,,,,,,,,,,,,,,,,
,,,Bloodstain Colour,,,,,,,,,Amount of DNA ,,,,,,,,,,,,,,,,,
Sample Number,Experiment Number,Time (minutes),Maximum Absorbance @ Soret band (OD),Maximum Absorbance @ Beta band (OD),Maximum Absorbance @ Alpha aand (OD),Average maximum absorbance wavelength @ Soret band (nm),Beta/ Soret ratio (OD),Average maximum absorbance wavelength @ Beta band (nm),alpha/ soret ratio (OD),Maximum absorbance wavelength @ Alpha band (nm),Alpha/ Beta band ratio (OD),Overall concentration (ng/ul),Concentration between 500-100 bp (ng/ul),Concentration between 1000-5000 bp (ng/ul),Concentration between 5000-10000 bp (ng/ul),Concentration between 10000-50000 bp (ng/ul),Relative concentration between 500-1000 bp (%),Relative concentration between 1000-5000 bp (%),Relative concentration between 5000-10000 bp (%),Relative concentration between 10000-50000 bp (%),Peak Height Between 500-1000 bp (bp),500-1000 bp Peak height's Sample Intensity (Normalized FU),Peak Height Between 1000-5000 bp (bp),1000-5000 bp Peak height's Sample Intensity (Normalized FU),Peak Height Between 5000-10000 bp (bp),5000-10000 bp Peak height's Sample Intensity (Normalized FU),Peak Height Between 10000-50000 bp (bp),10000-50000 bp Peak height's Sample Intensity (Normalized FU),Ratio of peak height 500-1000 and 10000-50000
1,1,90,3.8783,0.494,0.4093,414,0.127375396,538.5,0.105535931,560,0.82854251,2.22,0.432,0.611,0.0579,0.057,37.24,52.83,5.00,4.93,499,8.00,1115,6.50,5351,3.90,14732,2.60,0.033871844
2,1,90,3.5196,0.4247,0.306,414,0.120667121,535,0.086941698,560,0.720508594,2.20,0.334,0.631,0.106,0.0999,28.55,53.90,9.03,8.53,573,6.30,1621,5.60,5983,4.50,10933,4.50,0.052410134
3,1,90,3.6068,0.4405,0.3735,414,0.12213042,536,0.103554397,560,0.847900114,1.54,0.28,0.317,0.0791,0.0797,37.02,41.93,10.48,10.55,560,6.10,1178,3.00,9731,3.50,11145,2.90,0.050246747
4,1,90,3.7378,0.4633,0.3941,414,0.123949917,534.5,0.105436353,560,0.850636736,1.89,0.364,0.481,0.0588,0.0477,38.25,50.54,6.19,5.02,575,6.30,1716,4.30,8806,2.40,10246,2.40,0.056119461
5,1,90,4.00,0.6192,0.5101,414,0.1548,540,0.127525,573,0.82380491,1.55,0.338,0.355,0.0422,0.0269,44.30,46.64,5.54,3.53,667,6.30,1256,2.00,5846,2.10,10178,2.10,0.065533504
6,2,90,4.00,0.7402,0.5978,412.5,0.18505,540,0.14945,572,0.807619562,1.50,0.207,0.231,0.0718,0.0841,31.61,35.19,10.94,12.81,506,5.70,1014,3.80,9690,4.40,10507,4.40,0.048158371
7,2,90,4.00,0.7135,0.5744,413,0.178375,540,0.1436,572,0.80504555,1.33,0.139,0.248,0.0785,0.0978,22.71,40.52,12.83,15.99,525,2.70,1075,2.40,9694,3.80,10552,3.80,0.049753601
8,2,90,4.00,0.7205,0.5823,412.5,0.180125,540,0.145575,572,0.808188758,1.27,0.143,0.224,0.0424,0.0476,28.78,45.04,8.51,9.56,775,3.20,1066,3.10,9436,2.50,10276,2.50,0.075418451
9,2,90,4.00,0.7172,0.5806,413,0.1793,540,0.14515,573,0.809537089,1.18,0.116,0.139,0.0504,0.0338,31.30,37.53,13.59,9.12,520,3.40,1051,2.30,8519,2.90,10787,2.70,0.048206174
10,2,90,4.00,0.6864,0.5503,413,0.1716,540,0.137575,571.5,0.801719114,1.20,0.151,0.246,0.0653,0.0578,27.25,44.27,11.75,10.42,823,3.30,2082,2.60,9690,3.30,10318,3.30,0.07976352
11,1,180,3.5604,0.4372,0.3736,414,0.122795192,536,0.10493203,560,0.85452882,1.74,0.254,0.445,0.052,0.0523,31.63,55.38,6.48,6.51,501,4.60,1209,3.70,5074,2.20,12582,2.10,0.039818789
12,1,180,3.5087,0.4238,0.3612,414,0.120785476,535,0.10294411,560,0.852288815,2.49,0.446,0.746,0.0636,0.0558,33.99,56.90,4.85,4.26,500,8.10,1117,6.70,6318,2.70,15057,2.30,0.033207146
13,1,180,3.365,0.4028,0.3439,414,0.119702823,536,0.102199108,560,0.853773585,3.08,0.539,0.978,0.176,0.156,29.15,52.91,9.52,8.41,500,12.40,1058,9.20,8925,7.80,10000,7.80,0.05
14,1,180,3.8581,0.503,0.4238,414,0.130375055,537,0.109846816,560,0.842544732,1.51,0.23,0.304,0.0539,0.0727,35.78,46.05,8.16,11.01,549,4.40,1098,3.30,8256,2.50,12648,3.90,0.043406072
15,1,180,3.4221,0.4114,0.3497,414,0.120218579,535,0.102188715,560,0.850024307,2.09,0.359,0.532,0.091,0.0718,34.09,50.47,8.63,6.81,652,5.90,1209,4.70,8367,3.70,10000,3.60,0.0652
16,2,180,4.00,0.5866,0.474,413,0.14665,540,0.1185,560,0.808046369,2.28,0.314,0.37,0.0612,0.0748,38.34,45.09,7.46,9.11,505,7.80,1063,3.90,8512,3.00,12559,3.10,0.040210208
17,2,180,3.7964,0.4778,0.3937,414,0.125856074,538.5,0.103703509,560,0.823984931,0.95,0.0985,0.138,0.0245,0.025,34.44,48.25,8.57,8.75,505,2.50,1323,1.70,8814,1.40,10849,1.50,0.046548069
18,2,180,4.00,0.6377,0.5129,413,0.159425,539,0.128225,560,0.804296691,1.28,0.141,0.16,0.0357,0.0386,37.68,42.51,9.52,10.29,505,4.10,1022,1.50,9683,1.80,10322,1.80,0.048924627
19,2,180,4.00,0.6548,0.5258,414,0.1637,540,0.13145,560,0.80299328,1.30,0.186,0.209,0.0507,0.061,36.66,41.32,9.99,12.03,562,3.60,1012,2.20,9682,2.30,10332,2.30,0.054394115
20,2,180,3.828,0.5072,0.4221,414,0.132497388,539,0.110266458,560,0.832216088,1.51,0.273,0.26,0.034,0.0271,45.88,43.83,5.72,4.57,505,5.30,1113,3.10,8538,1.50,10459,1.30,0.048283775
21,1,360,3.6233,0.439,0.3683,414,0.121160268,537.5,0.101647669,560,0.838952164,2.01,0.366,0.563,0.0676,0.0574,34.73,53.42,6.41,5.44,529,6.50,1061,4.80,5951,2.60,10176,2.20,0.051985063
22,1,360,3.6435,0.4533,0.3867,414,0.124413339,535,0.106134212,560,0.853077432,3.54,0.63,0.879,0.112,0.119,36.21,50.52,6.45,6.83,500,13.40,1097,7.90,5392,4.40,10101,4.20,0.04950005
23,1,360,3.1407,0.3726,0.3183,414,0.118635973,534,0.101346834,560,0.854267311,2.32,0.457,0.633,0.0701,0.0618,37.40,51.80,5.74,5.06,510,7.80,1011,6.80,7836,2.80,10298,2.70,0.049524179
24,1,360,3.2081,0.3815,0.3271,414,0.118917739,537,0.101960662,560,0.85740498,1.74,0.352,0.469,0.0511,0.048,38.27,50.96,5.55,5.21,516,6.20,1264,5.20,5373,2.20,12112,2.00,0.042602378
25,1,360,3.2269,0.3901,0.3348,414,0.120890018,536,0.103752828,560,0.858241477,2.91,0.512,0.78,0.119,0.13,33.25,50.60,7.74,8.41,512,10.30,1115,7.50,9051,4.90,12492,5.00,0.040986231
26,2,360,4.00,0.6179,0.4996,413.5,0.154475,540,0.1249,570,0.808545072,1.40,0.196,0.238,0.0294,0.0309,39.69,48.12,5.95,6.24,533,4.60,1351,2.70,8298,1.60,11094,1.50,0.048043988
27,2,360,4.00,0.6993,0.5754,413,0.174825,540,0.14385,560,0.822822823,1.23,0.153,0.201,0.0354,0.0383,35.77,46.99,8.27,8.97,543,3.50,1073,2.30,9693,2.00,10859,2.00,0.050004604
28,2,360,3.8905,0.522,0.4382,414,0.134172985,538,0.112633338,560,0.839463602,1.92,0.233,0.31,0.05,0.0546,35.91,47.94,7.72,8.43,505,5.10,1019,4.70,9153,2.30,11200,2.40,0.045089286
29,2,360,3.891,0.5086,0.4197,413,0.130711899,539,0.107864302,560,0.825206449,1.74,0.23,0.402,0.0881,0.0749,28.93,50.55,11.09,9.43,506,4.40,1095,3.10,9019,3.40,10506,3.20,0.048162955
30,2,360,4.00,0.6354,0.5141,412.5,0.15885,540,0.128525,560,0.809096632,1.19,0.175,0.171,0.044,0.0501,39.75,38.85,10.01,11.39,525,3.20,1010,2.20,9694,2.30,11038,2.30,0.047562964
31,1,540,3.8798,0.5012,0.4271,414,0.129181917,536.5,0.110082994,560,0.852154828,3.25,0.531,0.957,0.109,0.12,30.91,55.73,6.36,7.00,505,5.20,1314,8.50,6895,4.40,10883,4.00,0.046402646
32,1,540,3.4444,0.4257,0.3671,414,0.123591917,536,0.106578795,560,0.862344374,3.27,0.556,0.874,0.125,0.104,32.95,51.79,7.38,6.14,512,13.80,1230,10.70,7741,6.10,10319,5.60,0.049617211
33,1,540,4.6972,0.4672,0.3992,414,0.09946351,535,0.084986801,560,0.854452055,2.29,0.352,0.448,0.0671,0.085,36.98,47.04,7.05,8.93,506,9.00,1012,5.70,7442,3.40,11757,3.50,0.04303819
34,1,540,3.3145,0.4082,0.3509,414,0.12315583,535.5,0.105868155,560,0.859627634,2.03,0.3,0.525,0.0806,0.101,29.79,52.20,8.00,10.01,505,5.60,1254,4.70,9692,3.20,14267,3.20,0.035396369
35,1,540,3.4828,0.4304,0.3688,414,0.12357873,535,0.105891811,560,0.856877323,2.51,0.509,0.372,0.0236,0.0202,55.04,40.22,2.55,2.18,505,10.40,1016,6.80,5095,1.40,13257,1.30,0.038093083
36,2,540,4.00,0.6298,0.516,413,0.15745,539.5,0.129,560,0.819307717,1.29,0.161,0.172,0.0398,0.0516,38.54,40.56,9.36,12.13,559,4.50,1015,2.70,9695,2.30,11930,2.40,0.046856664
37,2,540,4.00,0.6341,0.5166,413,0.158525,539,0.12915,560,0.814697997,1.43,0.223,0.23,0.0345,0.0428,40.86,42.25,6.34,7.85,517,5.40,1186,3.30,6028,2.00,10539,1.90,0.049055888
38,2,540,4.00,0.6079,0.4888,413,0.151975,540,0.1222,571,0.804079618,1.63,0.277,0.416,0.0548,0.0773,32.43,48.75,6.42,9.05,838,6.60,1022,6.40,6108,3.00,16365,3.20,0.051206844
39,2,540,4.00,0.6435,0.5155,412.5,0.160875,540,0.128875,570,0.801087801,1.24,0.132,0.201,0.03,0.0362,33.08,50.34,7.53,9.06,672,2.60,1135,2.40,8927,1.70,11047,1.70,0.060830995
40,2,540,4.00,0.6257,0.5058,413,0.156425,540,0.12645,560,0.80837462,1.00,0.138,0.134,0.02,0.0193,44.19,43.18,6.42,6.21,533,3.00,1025,2.40,9687,1.60,10313,1.70,0.051682343
41,1,1440,3.1621,0.3787,0.3257,414,0.119762183,535.5,0.10300117,560,0.860047531,1.99,0.414,0.458,0.0503,0.0476,42.65,47.26,5.19,4.90,506,7.80,1012,6.10,5328,2.30,10845,2.00,0.046657446
42,1,1440,3.4142,0.4117,0.3513,414,0.120584617,535,0.102893796,560,0.853291231,1.68,0.351,0.411,0.0394,0.0329,42.05,49.27,4.73,3.94,510,6.30,1256,5.10,5928,2.10,10920,1.60,0.046703297
43,1,1440,3.4133,0.4166,0.356,414,0.122051973,535,0.104297894,560,0.854536726,1.97,0.352,0.643,0.0937,0.0875,29.94,54.71,7.89,7.45,518,6.30,1143,5.20,5537,3.50,10419,3.40,0.049716863
44,1,1440,3.2648,0.4047,0.3476,414,0.123958589,535,0.106469003,560,0.858907833,1.69,0.321,0.451,0.041,0.0436,37.49,52.64,4.79,5.08,505,5.80,1106,4.50,7322,1.80,11516,2.00,0.043852032
45,1,1440,3.2787,0.3934,0.3381,414,0.11998658,535,0.103120139,560,0.859430605,1.73,0.311,0.398,0.037,0.0257,40.26,51.61,4.79,3.33,505,5.60,1068,4.00,7444,1.70,14534,1.10,0.034746113
46,2,1440,3.9835,0.5245,0.4343,413,0.131668131,538.5,0.109024727,560,0.828026692,1.31,0.234,0.273,0.0455,0.0551,37.52,43.85,7.30,8.85,505,5.70,1056,3.30,9686,2.60,12677,2.70,0.039835923
47,2,1440,3.6335,0.4427,0.3715,414,0.121838448,538,0.102243016,560,0.839168737,1.15,0.182,0.2,0.0304,0.039,40.40,44.22,6.73,8.64,505,5.10,1105,2.70,9691,2.10,10853,2.30,0.046530913
48,2,1440,3.5041,0.4177,0.3498,414,0.119203219,538,0.099825918,560,0.837443141,2.09,0.332,0.435,0.062,0.089,35.00,45.86,6.53,9.39,505,11.40,1131,5.90,9038,4.00,14123,4.50,0.035757275
49,2,1440,3.8547,0.5175,0.4274,414,0.134251693,539,0.11087763,560,0.82589372,3.10,0.487,0.608,0.0731,0.0879,38.20,47.67,5.73,6.90,690,10.20,1027,6.90,9687,3.80,10522,3.90,0.065576887
50,2,1440,3.7338,0.4759,0.399,414,0.127457282,538,0.106861642,560,0.838411431,1.15,0.105,0.273,0.0552,0.0723,18.13,47.19,9.55,12.50,599,2.60,1050,1.90,9347,2.80,12997,3.10,0.046087559
51,1,2880,3.44,0.3982,0.3407,414,0.115755814,535,0.099040698,560,0.855600201,2.84,0.558,0.73,0.081,0.0818,38.43,50.35,5.58,5.64,529,11.50,1009,8.20,5845,3.70,10735,3.50,0.049278062
52,1,2880,3.4487,0.4396,0.3792,414,0.127468321,535,0.109954476,560,0.862602366,1.49,0.285,0.41,0.0324,0.0297,37.70,54.11,4.28,3.92,505,5.30,1021,4.40,5138,1.70,11946,1.60,0.042273564
53,1,2880,3.527,0.4459,0.3838,414,0.126424724,535,0.108817692,560,0.860731106,1.51,0.229,0.324,0.0582,0.0827,31.80,45.14,8.09,11.51,816,3.80,1235,2.70,6230,1.80,10607,2.30,0.076930329
54,1,2880,3.2589,0.4045,0.3483,414,0.124121636,535,0.106876553,560,0.861063041,1.54,0.322,0.405,0.038,0.0294,40.51,51.00,4.79,3.70,543,5.80,1031,4.30,6048,1.90,10927,1.60,0.04969342
55,1,2880,2.846,0.352,0.3028,414,0.123682361,533,0.10639494,560,0.860227273,1.87,0.379,0.417,0.0368,0.0321,43.82,48.20,4.26,3.72,555,7.60,1080,5.30,5477,2.00,10521,1.80,0.05275164
56,2,2880,3.9345,0.5142,0.4238,414,0.13069005,538.5,0.107713814,560,0.824192921,1.38,0.194,0.272,0.0435,0.0481,34.77,48.81,7.81,8.62,505,4.90,1030,3.40,9448,2.40,12214,2.60,0.041345996
57,2,2880,3.8832,0.4943,0.4099,414,0.127291924,539,0.105557272,560,0.82925349,2.34,0.353,0.499,0.0638,0.0756,33.79,47.79,6.10,7.24,541,12.90,1010,6.40,8604,4.60,10661,4.40,0.050745709
58,2,2880,3.6511,0.4618,0.3911,414,0.12648243,538,0.107118403,560,0.846903421,2.80,0.436,0.423,0.0461,0.0554,43.19,41.94,4.57,5.49,505,11.40,1035,6.30,9685,2.90,11645,2.90,0.043366252
59,2,2880,3.8791,0.5017,0.4099,414,0.129334124,540,0.105668841,560,0.817022125,1.35,0.189,0.218,0.038,0.0354,37.54,43.27,7.56,7.04,566,4.40,1027,2.90,9150,2.30,12063,2.30,0.046920335
60,2,2880,3.627,0.4419,0.3679,414,0.121836228,539,0.101433692,560,0.832541299,2.05,0.344,0.455,0.0635,0.0848,34.35,45.42,6.34,8.46,629,6.90,1016,5.50,9684,3.20,15055,3.60,0.041780139
61,1,4320,2.9243,0.3432,0.2941,414,0.11736142,536,0.100571077,560,0.856934732,1.20,0.159,0.169,0.0262,0.03,41.32,44.05,6.81,7.81,542,3.40,1014,2.50,9390,1.70,12237,1.90,0.044291902
62,1,4320,2.8229,0.3381,0.2918,414,0.119770449,535,0.103368876,560,0.863058267,1.03,0.136,0.153,0.0212,0.0183,39.08,44.24,6.10,5.26,505,2.90,1120,1.80,5421,1.00,11327,1.10,0.044583738
63,1,4320,3.0266,0.3561,0.3055,414,0.117656777,535,0.100938347,560,0.857905083,1.04,0.147,0.151,0.0257,0.0196,40.71,41.87,7.11,5.43,783,3.00,1016,2.30,9116,1.40,10338,1.20,0.075739988
64,1,4320,3.0175,0.3601,0.3101,414,0.1193372,536,0.102767191,560,0.861149681,1.09,0.133,0.164,0.0243,0.0208,38.95,47.87,7.11,6.07,526,2.70,1143,1.80,8042,1.20,10338,1.20,0.050880248
65,1,4320,3.1129,0.3887,0.0335,414,0.124867487,534,0.010761669,560,0.086184718,1.17,0.21,0.183,0.0113,0.0286,46.92,40.99,2.52,6.39,633,4.60,1029,2.70,5889,1.40,6891,1.40,0.091858946
66,2,4320,4.00,0.5902,0.4795,413.5,0.14755,540,0.119875,560,0.812436462,1.39,0.129,0.181,0.0277,0.0298,35.03,49.32,7.54,8.11,505,4.00,1011,3.50,5099,2.20,13138,2.10,0.038438118
67,2,4320,3.9367,0.5206,0.4268,414,0.132242741,539,0.108415678,560,0.819823281,1.47,0.229,0.295,0.0241,0.0211,40.22,51.84,4.23,3.71,519,6.10,1088,4.00,5481,1.90,10734,1.70,0.048351034
68,2,4320,3.5823,0.438,0.3716,414,0.122267817,538,0.103732239,560,0.848401826,1.29,0.216,0.193,0.0253,0.0336,46.20,41.19,5.41,7.20,579,5.20,1013,2.60,9687,1.40,14946,1.70,0.038739462
69,2,4320,3.595,0.4359,0.3683,414,0.121251739,537.5,0.102447844,560,0.844918559,1.26,0.208,0.182,0.0273,0.0375,45.74,40.00,6.01,8.24,539,5.70,1129,2.90,9686,1.80,16880,2.10,0.03193128
70,2,4320,3.6799,0.4495,0.3781,414,0.122150058,538,0.102747357,560,0.841156841,2.57,0.406,0.388,0.0361,0.0373,46.81,44.72,4.16,4.30,505,10.50,1011,5.40,9687,2.20,10401,2.20,0.048553024
71,1,5760,3.0289,0.36365,0.3119,414,0.120060088,535,0.102974677,560,0.857692837,2.01,0.324,0.521,0.0804,0.0741,32.41,52.13,8.04,7.42,512,6.40,1052,4.60,7926,3.10,10314,3.00,0.049641264
72,1,5760,2.994,0.363,0.3134,414.5,0.121242485,536,0.104676019,560,0.863360882,2.00,0.358,0.347,0.0525,0.0567,43.92,42.66,6.45,6.96,527,7.20,1011,4.10,9693,2.30,12068,2.20,0.043669208
73,1,5760,3.02135,0.3632,0.31155,414,0.120211164,534,0.103116157,560,0.85779185,1.25,0.201,0.232,0.0249,0.0269,41.50,47.81,5.14,5.55,643,4.00,1068,2.50,5651,1.20,10367,1.20,0.062023729
74,1,5760,2.9951,0.3624,0.3127,414,0.120997629,536,0.10440386,560,0.86285872,2.02,0.338,0.44,0.0536,0.0581,38.00,49.44,6.03,6.54,560,6.40,1076,4.70,5094,2.20,14469,2.10,0.038703435
75,1,5760,3.0638,0.3643,0.3118,414,0.118904628,535,0.101769045,560,0.855888004,1.47,0.219,0.277,0.0345,0.039,38.45,48.67,6.05,6.83,506,4.00,1016,3.40,5958,1.60,10464,1.60,0.048356269
76,2,5760,3.6689,0.4604,0.3876,414,0.125487203,538.5,0.105644744,560,0.841876629,1.33,0.188,0.312,0.031,0.0396,31.18,61.96,5.12,6.55,821,3.90,1334,4.50,9699,1.90,13328,2.00,0.06159964
77,2,5760,3.9543,0.5468,0.4565,414,0.138279847,539,0.115443947,560,0.834857352,1.74,0.268,0.362,0.047,0.0526,34.37,46.41,6.02,6.74,505,5.60,1043,4.20,9689,2.40,10319,2.30,0.048938851
78,2,5760,4.00,0.5772,0.4781,414,0.1443,540,0.119525,560,0.828309078,1.29,0.206,0.225,0.035,0.0398,38.08,41.68,6.48,7.37,555,4.20,1011,3.10,9539,1.90,12909,1.90,0.042993261
79,2,5760,3.8526,0.5082,0.4167,414,0.131910917,539,0.108160723,560,0.819952774,1.22,0.177,0.171,0.0255,0.0167,39.21,37.98,5.64,3.71,543,3.70,1013,2.60,7969,1.40,10744,1.30,0.050539836
80,2,5760,3.5602,0.4469,0.3793,414,0.125526656,539,0.106538958,560,0.848735735,2.40,0.514,0.691,0.0997,0.058,37.73,50.71,7.31,4.25,643,10.70,1055,7.90,7558,4.60,10478,4.10,0.061366673
81,1,10080,2.3055,0.2749,0.238,414,0.119236608,535,0.103231403,560,0.865769371,1.49,0.249,0.327,0.0418,0.0464,35.56,46.70,5.97,6.63,504,6.50,1139,3.80,5725,2.10,14928,2.00,0.033762058
82,1,10080,2.6333,0.3113,0.2697,414,0.118216686,535.5,0.102419018,560,0.866366849,2.34,0.481,0.667,0.0539,0.0729,35.95,49.87,4.03,5.45,500,6.70,1118,8.10,5868,3.60,19810,4.50,0.025239778
83,1,10080,2.6529,0.3142,0.2712,414,0.118436428,534.5,0.102227751,560,0.863144494,0.46,0.00257,0.0026,0.00126,0.00151,22.15,22.45,10.86,13.06,620,2.60,1295,3.10,10000,1.50,11634,1.60,0.053292075
84,1,10080,2.7779,0.3298,0.2841,414,0.118722776,536,0.1022715,560,0.86143117,0.96,0.145,0.176,0.0235,0.022,39.52,48.04,6.42,6.02,528,3.60,1555,1.90,9463,1.30,11809,1.30,0.044711661
85,1,10080,3.2345,0.3871,0.3331,414,0.119678467,535.5,0.10298346,560,0.860501162,1.00,0.165,0.11,0.0227,0.0182,52.11,34.94,7.18,5.77,556,3.90,1037,1.70,8438,1.30,10826,1.30,0.051357842
86,2,10080,3.6138,0.4425,0.3659,414,0.122447285,539,0.101250761,560,0.826892655,1.70,0.246,0.239,0.0479,0.0521,38.13,37.12,7.43,8.09,515,6.70,1020,3.50,9425,2.80,10473,2.80,0.049174067
87,2,10080,3.844,0.4919,0.4086,414,0.127965661,539,0.106295525,560,0.830656638,1.74,0.255,0.37,0.0441,0.0473,34.41,49.93,5.96,6.39,559,8.20,1088,4.50,5280,2.90,12004,2.60,0.046567811
88,2,10080,3.8716,0.5038,0.4178,414,0.130127079,539,0.107914041,560,0.82929734,1.08,0.15,0.139,0.013,0.00992,42.87,39.73,3.72,2.84,526,4.70,1299,2.40,5746,1.10,10349,1.00,0.050826167
89,2,10080,3.8523,0.4998,0.4171,414,0.129740674,539,0.10827298,560,0.834533814,1.52,0.236,0.275,0.0515,0.0564,35.16,41.09,7.68,8.41,587,5.90,1061,3.40,9699,2.90,11842,3.00,0.04956933
90,2,10080,3.7289,0.4672,0.38725,414,0.125291641,539,0.103851002,560,0.828874144,2.02,0.323,0.444,0.073,0.0647,33.17,45.53,7.49,6.64,505,7.60,1011,4.80,5106,3.90,10311,3.20,0.048976821
91,1,14400,2.704,0.3313,0.2869,414,0.122522189,535,0.106102071,560,0.865982493,1.02,0.13,0.169,0.0184,0.0201,38.59,49.98,5.46,5.97,519,3.10,1018,2.40,7664,1.20,11879,1.30,0.043690546
92,1,14400,2.8859,0.339,0.2906,414,0.117467688,536,0.10069649,560,0.857227139,1.58,0.194,0.217,0.0185,0.0243,39.06,43.67,3.74,4.89,538,4.20,1071,3.10,9658,1.40,21452,1.50,0.025079247
93,1,14400,3.2522,0.3878,0.3346,414,0.119242359,535.5,0.102884201,560,0.862815884,1.82,0.255,0.268,0.0265,0.0452,40.13,42.17,4.18,7.12,525,6.50,1196,3.30,8250,1.60,18323,1.90,0.028652513
94,1,14400,2.6475,0.3399,0.2976,414,0.128385269,534,0.112407932,560,0.875551633,1.71,0.211,0.218,0.0188,0.0263,44.47,46.01,3.97,5.55,513,4.30,1134,2.90,5241,1.00,15655,1.10,0.032769083
95,1,14400,2.3667,0.2888,0.2502,414,0.12202645,534,0.105716821,560,0.86634349,1.19,0.172,0.169,0.0222,0.0295,41.81,40.96,5.39,7.16,591,3.80,1090,2.40,9691,1.20,12406,1.20,0.04763824
96,2,14400,3.6904,0.4683,0.3951,414,0.126896813,538,0.107061565,560,0.843689942,2.49,0.285,0.296,0.0684,0.0816,32.12,44.55,7.70,9.19,542,7.80,1466,4.40,9133,3.60,11737,3.70,0.046178751
97,2,14400,3.5794,0.4532,0.3786,414,0.126613399,538,0.105771917,560,0.835392763,1.00,0.0887,0.137,0.0179,0.0122,34.67,53.55,7.01,4.77,524,2.20,1382,2.10,9697,1.10,10648,1.10,0.049211119
98,2,14400,3.9424,0.5446,0.4559,414,0.138139205,538,0.115640219,560,0.837128167,1.46,0.171,0.257,0.0438,0.0647,28.80,43.25,7.38,10.91,505,5.10,1108,3.00,8729,3.00,12004,3.30,0.04206931
99,2,14400,3.8326,0.493,0.4053,414,0.128633304,539,0.105750665,560,0.822109533,2.35,0.311,0.355,0.0505,0.046,38.64,44.12,6.27,5.72,505,6.10,1010,4.10,8039,2.20,10444,2.00,0.048353121
100,2,14400,3.9168,0.5125,0.4251,414,0.130846609,539,0.108532475,560,0.829463415,1.33,0.201,0.26,0.0361,0.0325,34.41,44.68,6.19,5.58,634,4.00,1053,3.20,9702,2.00,11332,2.30,0.055947759
101,1,21600,2.698,0.3255,0.2818,414,0.120644922,535,0.104447739,560,0.865745008,1.37,0.17,0.257,0.0596,0.0777,27.75,41.99,9.73,12.67,529,3.60,1298,2.30,10000,2.70,10874,2.90,0.048648152
102,1,21600,2.8336,0.3371,0.2912,414,0.118965274,535,0.102766798,560,0.863838624,1.61,0.207,0.178,0.027,0.0221,44.76,38.54,4.48,4.79,560,4.40,1289,2.40,5434,1.20,10822,1.30,0.051746442
103,1,21600,2.6194,0.3131,0.271,414,0.11953119,535,0.103458807,560,0.865538167,1.08,0.173,0.144,0.0105,0.00944,48.11,40.03,2.94,2.63,575,3.70,1042,2.30,8825,0.90,18923,0.70,0.030386302
104,1,21600,2.74705,0.33095,0.2859,414,0.120474691,536,0.104075281,560,0.863876719,0.84,0.0816,0.108,0.00676,0.0044,38.43,50.77,3.18,2.07,547,1.90,1416,1.40,5370,0.90,12791,0.80,0.042764444
105,1,21600,2.8747,0.3489,0.3008,414,0.121369186,536,0.104637006,560,0.862138148,1.08,0.177,0.151,0.0155,0.014,45.49,38.85,3.99,3.59,511,3.70,1167,2.30,8517,1.20,11360,1.20,0.044982394
106,2,21600,3.5206,0.437,0.3608,414,0.124126569,538,0.102482531,560,0.825629291,2.17,0.34,0.543,0.0649,0.0536,33.96,54.21,6.48,5.35,569,6.30,1086,5.80,5431,3.00,11181,2.40,0.050889903
107,2,21600,3.8049,0.5013,0.4208,414,0.131751163,538,0.110594234,560,0.839417514,1.77,0.35,0.348,0.0362,0.0316,45.66,45.48,4.73,4.13,509,7.50,1012,4.40,5094,2.00,10277,1.80,0.049528072
108,2,21600,3.4783,0.4221,0.3541,414,0.121352385,538,0.101802605,560,0.838900734,1.15,0.226,0.251,0.0386,0.0267,41.65,46.29,7.13,4.93,543,4.10,1012,3.10,6551,1.90,10454,1.60,0.05194184
109,2,21600,2.2692,0.2764,0.0274,415,0.121805041,536,0.01207474,560,0.099131693,1.78,0.229,0.458,0.0463,0.0451,34.45,52.79,5.34,5.20,871,4.90,1038,5.00,6140,1.80,10579,1.60,0.082332924
110,2,21600,3.6074,0.4364,0.3698,414,0.120973554,538,0.102511504,560,0.847387718,1.23,0.213,0.321,0.0411,0.0363,34.81,52.54,6.72,5.94,988,3.40,1056,3.60,6893,1.60,10400,1.30,0.095
